[
    {
        "@context": "http://schema.org",
        "@type": "FlightReservation",
        "airplaneSeat": "17C",
        "modifiedTime": "2017-06-17T18:40:00+01:00",
        "passengerSequenceNumber": "40",
        "programMembershipUsed": {
            "@type": "ProgramMembership",
            "member": {
                "@type": "Person",
                "familyName": "KRAUSE",
                "givenName": "VOLKER",
                "name": "VOLKER KRAUSE"
            },
            "membershipNumber": "123412341234012",
            "programName": "LH"
        },
        "reservationFor": {
            "@type": "Flight",
            "airline": {
                "@type": "Airline",
                "iataCode": "4U",
                "name": "Germanwings"
            },
            "arrivalAirport": {
                "@type": "Airport",
                "address": {
                    "@type": "PostalAddress",
                    "addressCountry": "DE"
                },
                "geo": {
                    "@type": "GeoCoordinates",
                    "latitude": 52.55379867553711,
                    "longitude": 13.29319953918457
                },
                "iataCode": "TXL",
                "name": "Berlin-Tegel"
            },
            "boardingTime": {
                "@type": "QDateTime",
                "@value": "2017-06-18T18:40:00+01:00",
                "timezone": "Europe/London"
            },
            "departureAirport": {
                "@type": "Airport",
                "address": {
                    "@type": "PostalAddress",
                    "addressCountry": "GB"
                },
                "geo": {
                    "@type": "GeoCoordinates",
                    "latitude": 51.46609878540039,
                    "longitude": -0.4656749963760376
                },
                "iataCode": "LHR",
                "name": "London Heathrow"
            },
            "departureDay": "2017-06-18",
            "flightNumber": "8465"
        },
        "reservationNumber": "XXX007",
        "reservationStatus": "http://schema.org/ReservationConfirmed",
        "reservedTicket": {
            "@type": "Ticket",
            "ticketToken": "aztecCode:M1KRAUSE/VOLKER       EXXX007 LHRTXL4U 8465 169Y017C0040 147>1181  7168B4U 0000000000000291040PASSPORTID2   LH 123412341234012     "
        },
        "underName": {
            "@type": "Person",
            "familyName": "KRAUSE",
            "givenName": "VOLKER",
            "name": "VOLKER KRAUSE"
        }
    }
]
