[
    {
        "@context": "http://schema.org",
        "@type": "FlightReservation",
        "airplaneSeat": "10E",
        "modifiedTime": "2017-12-29T18:46:02",
        "passengerSequenceNumber": "143",
        "pkpassPassTypeIdentifier": "pass.booking.swiss.com",
        "pkpassSerialNumber": "123456789",
        "programMembershipUsed": {
            "@type": "ProgramMembership",
            "member": {
                "@type": "Person",
                "familyName": "KRAUSE",
                "givenName": "VOLKER",
                "name": "VOLKER KRAUSE"
            },
            "membershipNumber": "123456789012345",
            "programName": "LH"
        },
        "reservationFor": {
            "@type": "Flight",
            "airline": {
                "@type": "Airline",
                "iataCode": "LX",
                "name": "SWISS"
            },
            "arrivalAirport": {
                "@type": "Airport",
                "address": {
                    "@type": "PostalAddress",
                    "addressCountry": "DE"
                },
                "geo": {
                    "@type": "GeoCoordinates",
                    "latitude": 52.55379867553711,
                    "longitude": 13.29319953918457
                },
                "iataCode": "TXL"
            },
            "boardingTime": {
                "@type": "QDateTime",
                "@value": "2017-09-15T20:25:00+02:00",
                "timezone": "Europe/Zurich"
            },
            "departureAirport": {
                "@type": "Airport",
                "address": {
                    "@type": "PostalAddress",
                    "addressCountry": "CH"
                },
                "geo": {
                    "@type": "GeoCoordinates",
                    "latitude": 47.452301025390625,
                    "longitude": 8.560830116271973
                },
                "iataCode": "ZRH"
            },
            "departureDay": "2017-09-15",
            "departureGate": "AB",
            "flightNumber": "962"
        },
        "reservationNumber": "XXX007",
        "reservationStatus": "http://schema.org/ReservationConfirmed",
        "reservedTicket": {
            "@type": "Ticket",
            "ticketToken": "aztecCode:M1KRAUSE/VOLKER       EXXX007 ZRHTXLLX 0962 258Y010E0143 15D>5180 M7258BLX              2A724xxxxxxxxxx0 LX LH 123456789012345     N*30600000K09         "
        },
        "underName": {
            "@type": "Person",
            "familyName": "KRAUSE",
            "givenName": "VOLKER",
            "name": "VOLKER KRAUSE"
        }
    }
]
