[
    {
        "@context": "http://schema.org",
        "@type": "FlightReservation",
        "airplaneSeat": "3A",
        "passengerSequenceNumber": "27",
        "programMembershipUsed": {
            "@type": "ProgramMembership",
            "member": {
                "@type": "Person",
                "familyName": "DESMARAIS",
                "givenName": "LUC"
            },
            "membershipNumber": "1234567890123",
            "programName": "AC"
        },
        "reservationFor": {
            "@type": "Flight",
            "airline": {
                "@type": "Airline",
                "iataCode": "AC"
            },
            "arrivalAirport": {
                "@type": "Airport",
                "iataCode": "FRA"
            },
            "departureAirport": {
                "@type": "Airport",
                "iataCode": "YUL"
            },
            "departureDay": "2011-11-22",
            "flightNumber": "834"
        },
        "reservationNumber": "AB12C3",
        "reservationStatus": "http://schema.org/ReservationConfirmed",
        "reservedTicket": {
            "@type": "Ticket",
            "ticketToken": "aztecCode:M1DESMARAIS/LUC       EAB12C3 YULFRAAC 0834 326J003A0027 167>5321WW1325BAC 0014123456002001412346700100141234789012A0141234567890 1AC AC 1234567890123    4PCYLX58Z^108ABCDEFGH"
        },
        "underName": {
            "@type": "Person",
            "familyName": "DESMARAIS",
            "givenName": "LUC"
        }
    }
]
