[
    {
        "@context": "http://schema.org",
        "@type": "FlightReservation",
        "airplaneSeat": "2D",
        "passengerSequenceNumber": "3",
        "reservationFor": {
            "@type": "Flight",
            "airline": {
                "@type": "Airline",
                "iataCode": "TP"
            },
            "arrivalAirport": {
                "@type": "Airport",
                "iataCode": "LCG"
            },
            "departureAirport": {
                "@type": "Airport",
                "iataCode": "LIS"
            },
            "departureDay": "2018-07-23",
            "flightNumber": "1080"
        },
        "reservationNumber": "XXX007",
        "reservationStatus": "http://schema.org/ReservationConfirmed",
        "reservedTicket": {
            "@type": "Ticket",
            "ticketToken": "aztecCode:M1DOE/JOHN            EXXX007 LISLCGTP 1080 204Y002D0003 35C>2180      B1A              2904712345678900                           *306      09     BRND"
        },
        "underName": {
            "@type": "Person",
            "familyName": "DOE",
            "givenName": "JOHN"
        }
    }
]
