[
    {
        "content": {
            "objectName": "",
            "root": {
                "content": "",
                "isNull": false,
                "name": "html",
                "recursiveContent": "{\n  \"@context\": \"http://schema.org\",\n  \"@type\": \"FlightReservation\",\n  \"reservationNumber\": \"RXJ34P\",\n  \"reservationStatus\": \"http://schema.org/Confirmed\",\n  \"underName\": {\n    \"@type\": \"Person\",\n    \"name\": \"Eva Green\"\n  },\n  \"reservationFor\": {\n    \"@type\": \"Flight\",\n    \"flightNumber\": \"110\",\n    \"airline\": {\n      \"@type\": \"Airline\",\n      \"name\": \"United\",\n      \"iataCode\": \"UA\"\n    },\n    \"departureAirport\": {\n      \"@type\": \"Airport\",\n      \"name\": \"San Francisco Airport\",\n      \"iataCode\": \"SFO\"\n    },\n    \"departureTime\": \"2027-03-04T20:15:00-08:00\",\n    \"arrivalAirport\": {\n      \"@type\": \"Airport\",\n      \"name\": \"John F. Kennedy International Airport\",\n      \"iataCode\": \"JFK\"\n    },\n    \"arrivalTime\": \"2027-03-05T06:30:00-05:00\"\n  }\n}"
            }
        }
    },
    {
        "childNodes": [
            {
                "childNodes": [
                ],
                "content": "{\n  \"@context\": \"http://schema.org\",\n  \"@type\": \"FlightReservation\",\n  \"reservationNumber\": \"RXJ34P\",\n  \"reservationStatus\": \"http://schema.org/Confirmed\",\n  \"underName\": {\n    \"@type\": \"Person\",\n    \"name\": \"Eva Green\"\n  },\n  \"reservationFor\": {\n    \"@type\": \"Flight\",\n    \"flightNumber\": \"110\",\n    \"airline\": {\n      \"@type\": \"Airline\",\n      \"name\": \"United\",\n      \"iataCode\": \"UA\"\n    },\n    \"departureAirport\": {\n      \"@type\": \"Airport\",\n      \"name\": \"San Francisco Airport\",\n      \"iataCode\": \"SFO\"\n    },\n    \"departureTime\": \"2027-03-04T20:15:00-08:00\",\n    \"arrivalAirport\": {\n      \"@type\": \"Airport\",\n      \"name\": \"John F. Kennedy International Airport\",\n      \"iataCode\": \"JFK\"\n    },\n    \"arrivalTime\": \"2027-03-05T06:30:00-05:00\"\n  }\n}",
                "contextDateTime": "Invalid Date",
                "isNull": false,
                "mimeType": "text/plain",
                "result": [
                ]
            }
        ],
        "content": {
            "objectName": "",
            "root": {
                "content": "",
                "isNull": false,
                "name": "html",
                "recursiveContent": "{\n  \"@context\": \"http://schema.org\",\n  \"@type\": \"FlightReservation\",\n  \"reservationNumber\": \"RXJ34P\",\n  \"reservationStatus\": \"http://schema.org/Confirmed\",\n  \"underName\": {\n    \"@type\": \"Person\",\n    \"name\": \"Eva Green\"\n  },\n  \"reservationFor\": {\n    \"@type\": \"Flight\",\n    \"flightNumber\": \"110\",\n    \"airline\": {\n      \"@type\": \"Airline\",\n      \"name\": \"United\",\n      \"iataCode\": \"UA\"\n    },\n    \"departureAirport\": {\n      \"@type\": \"Airport\",\n      \"name\": \"San Francisco Airport\",\n      \"iataCode\": \"SFO\"\n    },\n    \"departureTime\": \"2027-03-04T20:15:00-08:00\",\n    \"arrivalAirport\": {\n      \"@type\": \"Airport\",\n      \"name\": \"John F. Kennedy International Airport\",\n      \"iataCode\": \"JFK\"\n    },\n    \"arrivalTime\": \"2027-03-05T06:30:00-05:00\"\n  }\n}"
            }
        },
        "contextDateTime": "Invalid Date",
        "isNull": false,
        "mimeType": "text/html",
        "result": [
            {
                "@context": "http://schema.org",
                "@type": "FlightReservation",
                "reservationFor": {
                    "@type": "Flight",
                    "airline": {
                        "@type": "Airline",
                        "iataCode": "UA",
                        "name": "United"
                    },
                    "arrivalAirport": {
                        "@type": "Airport",
                        "iataCode": "JFK",
                        "name": "John F. Kennedy International Airport"
                    },
                    "arrivalTime": "2027-03-05T06:30:00-05:00",
                    "departureAirport": {
                        "@type": "Airport",
                        "iataCode": "SFO",
                        "name": "San Francisco Airport"
                    },
                    "departureTime": "2027-03-04T20:15:00-08:00",
                    "flightNumber": "110"
                },
                "reservationNumber": "RXJ34P",
                "reservationStatus": "http://schema.org/Confirmed",
                "underName": {
                    "@type": "Person",
                    "name": "Eva Green"
                }
            }
        ]
    },
    {
        "triggerNodeEqualsNode": true
    }
]
